-2.5 0.5697469486013523 0.5341756844851857 0.4670782712576295 0.42393515493907635 0.3903909357160581 0.3631274226142448 0.3373483777643843 0.32140241211910603 0.30616523527015954 0.29136050831171 0.278133342101726 0.26680480715270694 0.2568812533377113 0.25031462170646224 0.24182774875262436 
-2.0 0.5209674873530168 0.4884416929910426 0.42708889265949546 0.3876395178796369 0.35696722091212474 0.3320379010589249 0.3084659552068911 0.2938852195381324 0.27995258899603637 0.26641538370968126 0.254320674712762 0.24396204374111857 0.23488810502270685 0.2288836822000788 0.22112342145783337 
-1.5 0.4774313711624249 0.4476236864654684 0.39139800578859263 0.3552453291823349 0.32713624914683276 0.30429021815911617 0.28268812838901686 0.26932587298559046 0.25655756197752755 0.2441516313993834 0.23306765084322853 0.22357466805982099 0.21525901860118296 0.20975637229246286 0.20264461960790886 
-1.0 0.4542983214492984 0.425934912712359 0.37243354288896935 0.3380325770325916 0.31128547022534275 0.2895464012064213 0.26899100054546543 0.2562761883918916 0.24412654216193702 0.2323217178917069 0.22177479101218955 0.2127417730654448 0.20482904294546533 0.1995930171361553 0.19282585120969115 
-0.5 0.45077782606680716 0.42263421398060497 0.3695474424872715 0.3354130601416236 0.308873224771587 0.2873026183872106 0.2669065077559456 0.25429022653537875 0.2422347315963975 0.2305213864872655 0.22005619094071974 0.2110931725877882 0.20324176061171342 0.1980463103533442 0.19133158524664948 
0.0 0.4643809506443575 0.4353880486438504 0.3806992773974573 0.3455348216352062 0.31819409352837214 0.2959725508536723 0.27496094669595006 0.26196394389764666 0.24954465023118616 0.2374778314515996 0.22669682764982038 0.21746333224989292 0.20937498817768527 0.20402275479243132 0.19710539939460767 
0.5 0.49816511407739045 0.46706295040664486 0.40839551814244685 0.3706728142030104 0.34134302167512776 0.31750484027221465 0.2949646215839658 0.2810220742579031 0.2676992649619398 0.2547545734418787 0.2431892411832451 0.23328400005986263 0.22460722113118875 0.21886560758904364 0.21144500789370912 
1.0 0.5493193909909891 0.5150234896455933 0.45033176946751635 0.4087354951219678 0.37639396153395815 0.35010794727775585 0.3252531775382814 0.30987893436149805 0.295188067253508 0.2809141450911032 0.26816122222799377 0.2572388575987635 0.24767110027860292 0.2413399069349703 0.23315732009731427 
1.5 0.6156649132298839 0.5772268324480239 0.5047217963190862 0.45810162041479396 0.4218539513961157 0.392393173292126 0.36453650209871225 0.3473053934820409 0.3308401975110856 0.3148423041293986 0.3005491128153632 0.2883075703138524 0.27758424145103083 0.2704883812566232 0.26131752055514085 
2.0 0.6565119233158258 0.6155236230239015 0.5382081553137598 0.4884949092109715 0.4498423461173161 0.41842695816875974 0.388722103483406 0.3703477767746647 0.35279017808359286 0.33573088571964554 0.32048939587954695 0.3074356738965006 0.29600089321499956 0.2884342498612775 0.2786549376604154 
