-2.5 0.8170723818883353 0.8520534700840559 0.7933814142446854 0.7016088613763558 0.6472563564951288 0.6153925183286378 0.5708775369393378 0.53908174923223 0.5131289503713259 0.48857121878427223 0.46759401936039363 0.45093921568555256 0.43725520042100424 0.42516803222650357 0.4102663872520719 
-2.0 0.699490275599898 0.7294373544208205 0.6792085944984192 0.6006427174459904 0.5541118966011486 0.5268334749645753 0.4887244930793189 0.46150432899206884 0.43928630910765243 0.41826259711259434 0.40030415508030914 0.38604608753229985 0.3743312923429304 0.36398354739522626 0.3512263474443881 
-1.5 0.6044485255863976 0.6303266089141494 0.5869225746677968 0.5190316686719769 0.47882312391434123 0.45525109966509775 0.4223200944522137 0.3987984121319734 0.3795992183346512 0.36143205838826387 0.3459136813830451 0.3335928983675639 0.32346982600077767 0.3145280588383683 0.30350421623486423 
-1.0 0.5275671806841585 0.550153764793181 0.5122704000261775 0.4530147109903568 0.4179203932788205 0.3973465547304883 0.3686041278043872 0.34807422806710375 0.33131702854670503 0.31546059586758557 0.3019160406922799 0.29116236939662615 0.282326876344135 0.2745224352833681 0.2649007432509582 
-0.5 0.47429867787161634 0.4946046926746086 0.4605464144492333 0.4072737773424017 0.37572293585563166 0.35722643952399186 0.33138613787332355 0.31292914384726817 0.29786392017840957 0.2836085128467524 0.2714315525519978 0.2617636803557399 0.2538203077833485 0.2468038817959542 0.23815369282107934 
0.0 0.4675120458717437 0.4875275065233512 0.45395656046154453 0.40144618941315785 0.37034680174746504 0.3521149675786066 0.3266444089321898 0.3084515118394019 0.2936018530325309 0.27955042308491873 0.26754770014787377 0.25801816333790084 0.25018845067855966 0.24327242113617434 0.23474600574963264 
0.5 0.5093293142360464 0.531135085740378 0.49456133948741815 0.43735410490914095 0.4034729890474253 0.3836103829894896 0.3558615746258493 0.33604138842517384 0.3198634811315984 0.304555201393248 0.29147887812741397 0.2810969585784528 0.2725669063270471 0.26503226285600867 0.2557431903282169 
1.0 0.5853171976385562 0.6103762168477803 0.5683459584951165 0.5026038594403377 0.46366795052099363 0.44084200159035436 0.4089532916825479 0.38617609131454156 0.3675845689024947 0.3499924155614722 0.3349652088497322 0.3230343894630227 0.3132317212482705 0.3045729688882404 0.29389804060773583 
1.5 0.6964232868741727 0.7262390595764598 0.6762305329378695 0.5980091362414254 0.5516823346773484 0.5245235181511438 0.4865816291074437 0.4594808146942065 0.4373602120561341 0.4164286807387938 0.3985489793854943 0.3843534278351275 0.3726899973980974 0.36238762322708357 0.3496863585619611 
2.0 0.7752787983806739 0.8084705897367217 0.7527996333343704 0.6657212837423154 0.6141489315158071 0.5839149415865166 0.5416769195379986 0.5115074992595116 0.486882196579477 0.4635806029167897 0.4436763957458772 0.42787349202949454 0.4148894196921044 0.40342051504989823 0.38928109525581234 
