-2.5 0.6776040392391375 0.6176893067855145 0.5618706453501454 0.5129805792776269 0.4705568239399127 0.43696739714745075 0.40523574114586686 0.3846431248998567 0.36171904536990385 0.3472461620563253 0.3326752861082525 0.32192812578274377 0.30836334571576013 0.3000899155152746 0.29000520976992317 
-2.0 0.5917399411164479 0.539417436820392 0.4906719608222665 0.4479771078644591 0.41092917274048024 0.38159610463388355 0.3538853957736048 0.3359022185503249 0.31588301458212703 0.30324409476491543 0.2905195996671452 0.28113428958940945 0.26928840070257876 0.2620633565526596 0.25325655665425323 
-1.5 0.5289483895107064 0.4821780053274974 0.43860507871974747 0.4004407228207352 0.3673240709659479 0.34110363516923886 0.31633340452334086 0.3002584838198428 0.28236358614184276 0.2710658253892803 0.2596915700422377 0.25130216735748634 0.24071328630749345 0.23425491633497972 0.2263826361332815 
-1.0 0.4907724844690323 0.4473776692085162 0.4069495407352383 0.37153962904225735 0.34081311237188006 0.3164850896857439 0.29350260618446417 0.2785878641647444 0.2619844987572514 0.25150213370344954 0.2409487949158658 0.23316488238213978 0.22334023490479477 0.21734798624710866 0.21004387380506556 
-0.5 0.47764221212377267 0.4354083945979997 0.39606189224285593 0.3615993478105996 0.3316948974639684 0.3080177538992162 0.2856501505656148 0.2711344419694785 0.2549752879156112 0.244773371159818 0.23450237952252875 0.22692672008919829 0.21736492413910075 0.21153299387603908 0.20442429782069133 
0.0 0.4893486232747096 0.44607970788722956 0.40576887214146573 0.37046169399763346 0.33982432310479704 0.3155668824674383 0.2926510772487481 0.2777796068529626 0.2612244122138949 0.25077245928240466 0.2402497385307657 0.23248840919260894 0.22269226562437372 0.21671740206996953 0.20943448079612415 
0.5 0.5424730097090236 0.49450675898164675 0.44981972125268876 0.4106795453514169 0.3767161376553079 0.3498252745681162 0.32442169675951976 0.3079357582676247 0.28958330802044757 0.2779966761297932 0.26633159376321897 0.2577276834114588 0.24686805648650678 0.24024455319907878 0.23217098757533552 
1.0 0.6127630005498217 0.5585816068310853 0.5081043243960254 0.4638926287023065 0.42552847189397475 0.395153272284467 0.3664580703406025 0.3478359952209721 0.3271055583519864 0.31401760891208347 0.30084104391314115 0.2911222969354175 0.2788555528573028 0.2713738207233244 0.26225413696358413 
1.5 0.6952836823182771 0.6338056901678087 0.5765306412934852 0.5263649645866968 0.48283431376280794 0.44836849154981334 0.4158089119823546 0.3946790053953601 0.37115680436592147 0.3563063031567982 0.3413552525474266 0.3303276836829095 0.3164089794121968 0.3079196837733219 0.29757185386133156 
2.0 0.7468779626473929 0.6808379293592607 0.6193127233150858 0.5654244481168732 0.5186635580990657 0.4816401621384728 0.44666446362802326 0.42396658938767834 0.39869889789911633 0.3827463991285709 0.3666858895803923 0.354840007998615 0.3398884511696964 0.3307691981333914 0.3196534962709231 
