^C:\Users\NERS535\Desktop\dnng-hololens-visualization - vn2\builds_10\dnng-hololens-visualization-v2\dnng-hololens-visualization-v2.vcxproj
C:\Users\NERS535\Desktop\dnng-hololens-visualization - vn2\builds_10\build\bin\x64\Release\UnityPlayer.winmd
C:\Users\NERS535\Desktop\dnng-hololens-visualization - vn2\builds_10\build\bin\x64\Release\UnityPlayer_UAP_x64_Release_il2cpp.pdb
C:\Users\NERS535\Desktop\dnng-hololens-visualization - vn2\builds_10\build\bin\x64\Release\UnityPlayer.dll
