^C:\USERS\NERS535\DESKTOP\DNNG-HOLOLENS-VISUALIZATION - VN2\BUILDS_12\DNNG-HOLOLENS-VISUALIZATION-V2\PCH.CPP
C:\WINDOWS\GLOBALIZATION\SORTING\SORTDEFAULT.NLS
C:\PROGRAM FILES (X86)\MICROSOFT VISUAL STUDIO\2019\PROFESSIONAL\VC\TOOLS\MSVC\14.29.30133\BIN\HOSTX86\ARM64\1033\CLUI.DLL
C:\WINDOWS\SYSTEM32\TZRES.DLL
C:\WINDOWS\MICROSOFT.NET\FRAMEWORK\V2.0.50727\MSCORWKS.DLL
C:\WINDOWS\MICROSOFT.NET\FRAMEWORK\V4.0.30319\CLR.DLL
C:\PROGRAM FILES (X86)\MICROSOFT VISUAL STUDIO\2019\PROFESSIONAL\VC\TOOLS\MSVC\14.29.30133\BIN\HOSTX86\ARM64\CL.EXE.CONFIG
C:\PROGRAM FILES (X86)\MICROSOFT VISUAL STUDIO\2019\PROFESSIONAL\VC\TOOLS\MSVC\14.29.30133\LIB\X86\STORE\REFERENCES\PLATFORM.WINMD
C:\PROGRAM FILES (X86)\WINDOWS KITS\10\REFERENCES\10.0.19041.0\WINDOWS.FOUNDATION.FOUNDATIONCONTRACT\4.0.0.0\WINDOWS.FOUNDATION.FOUNDATIONCONTRACT.WINMD
C:\PROGRAM FILES (X86)\WINDOWS KITS\10\REFERENCES\10.0.19041.0\WINDOWS.FOUNDATION.UNIVERSALAPICONTRACT\10.0.0.0\WINDOWS.FOUNDATION.UNIVERSALAPICONTRACT.WINMD
C:\PROGRAM FILES (X86)\WINDOWS KITS\10\REFERENCES\10.0.19041.0\WINDOWS.APPLICATIONMODEL.ACTIVATION.WEBUISEARCHACTIVATEDEVENTSCONTRACT\1.0.0.0\WINDOWS.APPLICATIONMODEL.ACTIVATION.WEBUISEARCHACTIVATEDEVENTSCONTRACT.WINMD
C:\PROGRAM FILES (X86)\WINDOWS KITS\10\REFERENCES\10.0.19041.0\WINDOWS.APPLICATIONMODEL.WALLET.WALLETCONTRACT\1.0.0.0\WINDOWS.APPLICATIONMODEL.WALLET.WALLETCONTRACT.WINMD
C:\PROGRAM FILES (X86)\WINDOWS KITS\10\REFERENCES\10.0.19041.0\WINDOWS.EMBEDDED.DEVICELOCKDOWN.DEVICELOCKDOWNCONTRACT\1.0.0.0\WINDOWS.EMBEDDED.DEVICELOCKDOWN.DEVICELOCKDOWNCONTRACT.WINMD
C:\PROGRAM FILES (X86)\WINDOWS KITS\10\REFERENCES\10.0.19041.0\WINDOWS.GAMING.PREVIEW.GAMESENUMERATIONCONTRACT\2.0.0.0\WINDOWS.GAMING.PREVIEW.GAMESENUMERATIONCONTRACT.WINMD
C:\PROGRAM FILES (X86)\WINDOWS KITS\10\REFERENCES\10.0.19041.0\WINDOWS.NETWORKING.NETWORKOPERATORS.NETWORKOPERATORSFDNCONTRACT\1.0.0.0\WINDOWS.NETWORKING.NETWORKOPERATORS.NETWORKOPERATORSFDNCONTRACT.WINMD
C:\PROGRAM FILES (X86)\WINDOWS KITS\10\REFERENCES\10.0.19041.0\WINDOWS.PHONE.PHONECONTRACT\1.0.0.0\WINDOWS.PHONE.PHONECONTRACT.WINMD
C:\PROGRAM FILES (X86)\WINDOWS KITS\10\REFERENCES\10.0.19041.0\WINDOWS.PHONE.STARTSCREEN.DUALSIMTILECONTRACT\1.0.0.0\WINDOWS.PHONE.STARTSCREEN.DUALSIMTILECONTRACT.WINMD
C:\PROGRAM FILES (X86)\WINDOWS KITS\10\REFERENCES\10.0.19041.0\WINDOWS.SECURITY.ENTERPRISEDATA.ENTERPRISEDATACONTRACT\5.0.0.0\WINDOWS.SECURITY.ENTERPRISEDATA.ENTERPRISEDATACONTRACT.WINMD
C:\PROGRAM FILES (X86)\WINDOWS KITS\10\REFERENCES\10.0.19041.0\WINDOWS.SYSTEM.PROFILE.PROFILERETAILINFOCONTRACT\1.0.0.0\WINDOWS.SYSTEM.PROFILE.PROFILERETAILINFOCONTRACT.WINMD
C:\PROGRAM FILES (X86)\WINDOWS KITS\10\REFERENCES\10.0.19041.0\WINDOWS.SYSTEM.USERPROFILE.USERPROFILECONTRACT\2.0.0.0\WINDOWS.SYSTEM.USERPROFILE.USERPROFILECONTRACT.WINMD
C:\PROGRAM FILES (X86)\WINDOWS KITS\10\REFERENCES\10.0.19041.0\WINDOWS.UI.WEBUI.CORE.WEBUICOMMANDBARCONTRACT\1.0.0.0\WINDOWS.UI.WEBUI.CORE.WEBUICOMMANDBARCONTRACT.WINMD
C:\PROGRAM FILES\UNITY\HUB\EDITOR\2020.3.31F1\EDITOR\DATA\PLAYBACKENGINES\METROSUPPORT\PLAYERS\UAP\IL2CPP\ARM64\RELEASE\UNITYPLAYER.WINMD
C:\PROGRAM FILES (X86)\WINDOWS KITS\10\REFERENCES\10.0.19041.0\WINDOWS.AI.MACHINELEARNING.MACHINELEARNINGCONTRACT\3.0.0.0\WINDOWS.AI.MACHINELEARNING.MACHINELEARNINGCONTRACT.WINMD
C:\PROGRAM FILES (X86)\WINDOWS KITS\10\REFERENCES\10.0.19041.0\WINDOWS.AI.MACHINELEARNING.PREVIEW.MACHINELEARNINGPREVIEWCONTRACT\2.0.0.0\WINDOWS.AI.MACHINELEARNING.PREVIEW.MACHINELEARNINGPREVIEWCONTRACT.WINMD
C:\PROGRAM FILES (X86)\WINDOWS KITS\10\REFERENCES\10.0.19041.0\WINDOWS.APPLICATIONMODEL.CALLS.BACKGROUND.CALLSBACKGROUNDCONTRACT\2.0.0.0\WINDOWS.APPLICATIONMODEL.CALLS.BACKGROUND.CALLSBACKGROUNDCONTRACT.WINMD
C:\PROGRAM FILES (X86)\WINDOWS KITS\10\REFERENCES\10.0.19041.0\WINDOWS.APPLICATIONMODEL.CALLS.CALLSPHONECONTRACT\5.0.0.0\WINDOWS.APPLICATIONMODEL.CALLS.CALLSPHONECONTRACT.WINMD
C:\PROGRAM FILES (X86)\WINDOWS KITS\10\REFERENCES\10.0.19041.0\WINDOWS.APPLICATIONMODEL.CALLS.CALLSVOIPCONTRACT\4.0.0.0\WINDOWS.APPLICATIONMODEL.CALLS.CALLSVOIPCONTRACT.WINMD
C:\PROGRAM FILES (X86)\WINDOWS KITS\10\REFERENCES\10.0.19041.0\WINDOWS.APPLICATIONMODEL.COMMUNICATIONBLOCKING.COMMUNICATIONBLOCKINGCONTRACT\2.0.0.0\WINDOWS.APPLICATIONMODEL.COMMUNICATIONBLOCKING.COMMUNICATIONBLOCKINGCONTRACT.WINMD
C:\PROGRAM FILES (X86)\WINDOWS KITS\10\REFERENCES\10.0.19041.0\WINDOWS.APPLICATIONMODEL.SOCIALINFO.SOCIALINFOCONTRACT\2.0.0.0\WINDOWS.APPLICATIONMODEL.SOCIALINFO.SOCIALINFOCONTRACT.WINMD
C:\PROGRAM FILES (X86)\WINDOWS KITS\10\REFERENCES\10.0.19041.0\WINDOWS.APPLICATIONMODEL.STARTUPTASKCONTRACT\3.0.0.0\WINDOWS.APPLICATIONMODEL.STARTUPTASKCONTRACT.WINMD
C:\PROGRAM FILES (X86)\WINDOWS KITS\10\REFERENCES\10.0.19041.0\WINDOWS.DEVICES.CUSTOM.CUSTOMDEVICECONTRACT\1.0.0.0\WINDOWS.DEVICES.CUSTOM.CUSTOMDEVICECONTRACT.WINMD
C:\PROGRAM FILES (X86)\WINDOWS KITS\10\REFERENCES\10.0.19041.0\WINDOWS.DEVICES.DEVICESLOWLEVELCONTRACT\3.0.0.0\WINDOWS.DEVICES.DEVICESLOWLEVELCONTRACT.WINMD
C:\PROGRAM FILES (X86)\WINDOWS KITS\10\REFERENCES\10.0.19041.0\WINDOWS.DEVICES.PRINTERS.PRINTERSCONTRACT\1.0.0.0\WINDOWS.DEVICES.PRINTERS.PRINTERSCONTRACT.WINMD
C:\PROGRAM FILES (X86)\WINDOWS KITS\10\REFERENCES\10.0.19041.0\WINDOWS.DEVICES.SMARTCARDS.SMARTCARDBACKGROUNDTRIGGERCONTRACT\3.0.0.0\WINDOWS.DEVICES.SMARTCARDS.SMARTCARDBACKGROUNDTRIGGERCONTRACT.WINMD
C:\PROGRAM FILES (X86)\WINDOWS KITS\10\REFERENCES\10.0.19041.0\WINDOWS.DEVICES.SMARTCARDS.SMARTCARDEMULATORCONTRACT\6.0.0.0\WINDOWS.DEVICES.SMARTCARDS.SMARTCARDEMULATORCONTRACT.WINMD
C:\PROGRAM FILES (X86)\WINDOWS KITS\10\REFERENCES\10.0.19041.0\WINDOWS.GAMING.XBOXLIVE.STORAGEAPICONTRACT\1.0.0.0\WINDOWS.GAMING.XBOXLIVE.STORAGEAPICONTRACT.WINMD
C:\PROGRAM FILES (X86)\WINDOWS KITS\10\REFERENCES\10.0.19041.0\WINDOWS.GRAPHICS.PRINTING3D.PRINTING3DCONTRACT\4.0.0.0\WINDOWS.GRAPHICS.PRINTING3D.PRINTING3DCONTRACT.WINMD
C:\PROGRAM FILES (X86)\WINDOWS KITS\10\REFERENCES\10.0.19041.0\WINDOWS.NETWORKING.CONNECTIVITY.WWANCONTRACT\2.0.0.0\WINDOWS.NETWORKING.CONNECTIVITY.WWANCONTRACT.WINMD
C:\PROGRAM FILES (X86)\WINDOWS KITS\10\REFERENCES\10.0.19041.0\WINDOWS.NETWORKING.SOCKETS.CONTROLCHANNELTRIGGERCONTRACT\3.0.0.0\WINDOWS.NETWORKING.SOCKETS.CONTROLCHANNELTRIGGERCONTRACT.WINMD
C:\PROGRAM FILES (X86)\WINDOWS KITS\10\REFERENCES\10.0.19041.0\WINDOWS.SECURITY.ISOLATION.ISOLATEDWINDOWSENVIRONMENTCONTRACT\2.0.0.0\WINDOWS.SECURITY.ISOLATION.ISOLATEDWINDOWSENVIRONMENTCONTRACT.WINMD
C:\PROGRAM FILES (X86)\WINDOWS KITS\10\REFERENCES\10.0.19041.0\WINDOWS.SERVICES.MAPS.GUIDANCECONTRACT\3.0.0.0\WINDOWS.SERVICES.MAPS.GUIDANCECONTRACT.WINMD
C:\PROGRAM FILES (X86)\WINDOWS KITS\10\REFERENCES\10.0.19041.0\WINDOWS.SERVICES.MAPS.LOCALSEARCHCONTRACT\4.0.0.0\WINDOWS.SERVICES.MAPS.LOCALSEARCHCONTRACT.WINMD
C:\PROGRAM FILES (X86)\WINDOWS KITS\10\REFERENCES\10.0.19041.0\WINDOWS.SERVICES.STORE.STORECONTRACT\4.0.0.0\WINDOWS.SERVICES.STORE.STORECONTRACT.WINMD
C:\PROGRAM FILES (X86)\WINDOWS KITS\10\REFERENCES\10.0.19041.0\WINDOWS.SERVICES.TARGETEDCONTENT.TARGETEDCONTENTCONTRACT\1.0.0.0\WINDOWS.SERVICES.TARGETEDCONTENT.TARGETEDCONTENTCONTRACT.WINMD
C:\PROGRAM FILES (X86)\WINDOWS KITS\10\REFERENCES\10.0.19041.0\WINDOWS.STORAGE.PROVIDER.CLOUDFILESCONTRACT\4.0.0.0\WINDOWS.STORAGE.PROVIDER.CLOUDFILESCONTRACT.WINMD
C:\PROGRAM FILES (X86)\WINDOWS KITS\10\REFERENCES\10.0.19041.0\WINDOWS.SYSTEM.PROFILE.PROFILEHARDWARETOKENCONTRACT\1.0.0.0\WINDOWS.SYSTEM.PROFILE.PROFILEHARDWARETOKENCONTRACT.WINMD
C:\PROGRAM FILES (X86)\WINDOWS KITS\10\REFERENCES\10.0.19041.0\WINDOWS.SYSTEM.PROFILE.PROFILESHAREDMODECONTRACT\2.0.0.0\WINDOWS.SYSTEM.PROFILE.PROFILESHAREDMODECONTRACT.WINMD
C:\PROGRAM FILES (X86)\WINDOWS KITS\10\REFERENCES\10.0.19041.0\WINDOWS.SYSTEM.PROFILE.SYSTEMMANUFACTURERS.SYSTEMMANUFACTURERSCONTRACT\3.0.0.0\WINDOWS.SYSTEM.PROFILE.SYSTEMMANUFACTURERS.SYSTEMMANUFACTURERSCONTRACT.WINMD
C:\PROGRAM FILES (X86)\WINDOWS KITS\10\REFERENCES\10.0.19041.0\WINDOWS.SYSTEM.SYSTEMMANAGEMENTCONTRACT\7.0.0.0\WINDOWS.SYSTEM.SYSTEMMANAGEMENTCONTRACT.WINMD
C:\PROGRAM FILES (X86)\WINDOWS KITS\10\REFERENCES\10.0.19041.0\WINDOWS.UI.VIEWMANAGEMENT.VIEWMANAGEMENTVIEWSCALINGCONTRACT\1.0.0.0\WINDOWS.UI.VIEWMANAGEMENT.VIEWMANAGEMENTVIEWSCALINGCONTRACT.WINMD
C:\PROGRAM FILES (X86)\WINDOWS KITS\10\REFERENCES\10.0.19041.0\WINDOWS.UI.XAML.CORE.DIRECT.XAMLDIRECTCONTRACT\2.0.0.0\WINDOWS.UI.XAML.CORE.DIRECT.XAMLDIRECTCONTRACT.WINMD
C:\PROGRAM FILES (X86)\MICROSOFT VISUAL STUDIO\2019\PROFESSIONAL\VC\TOOLS\MSVC\14.29.30133\INCLUDE\VCCORLIB.H
C:\USERS\NERS535\DESKTOP\DNNG-HOLOLENS-VISUALIZATION - VN2\BUILDS_12\DNNG-HOLOLENS-VISUALIZATION-V2\PCH.H
C:\PROGRAM FILES (X86)\WINDOWS KITS\10\INCLUDE\10.0.19041.0\WINRT\ROAPI.H
C:\PROGRAM FILES (X86)\WINDOWS KITS\10\INCLUDE\10.0.19041.0\SHARED\APISET.H
C:\PROGRAM FILES (X86)\WINDOWS KITS\10\INCLUDE\10.0.19041.0\SHARED\APISETCCONV.H
C:\PROGRAM FILES (X86)\WINDOWS KITS\10\INCLUDE\10.0.19041.0\SHARED\WTYPESBASE.H
C:\PROGRAM FILES (X86)\WINDOWS KITS\10\INCLUDE\10.0.19041.0\SHARED\RPC.H
C:\PROGRAM FILES (X86)\WINDOWS KITS\10\INCLUDE\10.0.19041.0\UM\WINDOWS.H
C:\PROGRAM FILES (X86)\WINDOWS KITS\10\INCLUDE\10.0.19041.0\SHARED\WINAPIFAMILY.H
C:\PROGRAM FILES (X86)\WINDOWS KITS\10\INCLUDE\10.0.19041.0\SHARED\WINPACKAGEFAMILY.H
C:\PROGRAM FILES (X86)\WINDOWS KITS\10\INCLUDE\10.0.19041.0\SHARED\SDKDDKVER.H
C:\PROGRAM FILES (X86)\MICROSOFT VISUAL STUDIO\2019\PROFESSIONAL\VC\TOOLS\MSVC\14.29.30133\INCLUDE\EXCPT.H
C:\PROGRAM FILES (X86)\MICROSOFT VISUAL STUDIO\2019\PROFESSIONAL\VC\TOOLS\MSVC\14.29.30133\INCLUDE\VCRUNTIME.H
C:\PROGRAM FILES (X86)\MICROSOFT VISUAL STUDIO\2019\PROFESSIONAL\VC\TOOLS\MSVC\14.29.30133\INCLUDE\SAL.H
C:\PROGRAM FILES (X86)\MICROSOFT VISUAL STUDIO\2019\PROFESSIONAL\VC\TOOLS\MSVC\14.29.30133\INCLUDE\CONCURRENCYSAL.H
C:\PROGRAM FILES (X86)\MICROSOFT VISUAL STUDIO\2019\PROFESSIONAL\VC\TOOLS\MSVC\14.29.30133\INCLUDE\VADEFS.H
C:\PROGRAM FILES (X86)\MICROSOFT VISUAL STUDIO\2019\PROFESSIONAL\VC\TOOLS\MSVC\14.29.30133\INCLUDE\STDARG.H
C:\PROGRAM FILES (X86)\WINDOWS KITS\10\INCLUDE\10.0.19041.0\SHARED\WINDEF.H
C:\PROGRAM FILES (X86)\WINDOWS KITS\10\INCLUDE\10.0.19041.0\SHARED\MINWINDEF.H
C:\PROGRAM FILES (X86)\WINDOWS KITS\10\INCLUDE\10.0.19041.0\SHARED\SPECSTRINGS.H
C:\PROGRAM FILES (X86)\WINDOWS KITS\10\INCLUDE\10.0.19041.0\SHARED\SPECSTRINGS_STRICT.H
C:\PROGRAM FILES (X86)\WINDOWS KITS\10\INCLUDE\10.0.19041.0\SHARED\SPECSTRINGS_UNDEF.H
C:\PROGRAM FILES (X86)\WINDOWS KITS\10\INCLUDE\10.0.19041.0\SHARED\DRIVERSPECS.H
C:\PROGRAM FILES (X86)\WINDOWS KITS\10\INCLUDE\10.0.19041.0\SHARED\SDV_DRIVERSPECS.H
C:\PROGRAM FILES (X86)\WINDOWS KITS\10\INCLUDE\10.0.19041.0\UM\WINNT.H
C:\PROGRAM FILES (X86)\WINDOWS KITS\10\INCLUDE\10.0.19041.0\UCRT\CTYPE.H
C:\PROGRAM FILES (X86)\WINDOWS KITS\10\INCLUDE\10.0.19041.0\UCRT\CORECRT.H
C:\PROGRAM FILES (X86)\WINDOWS KITS\10\INCLUDE\10.0.19041.0\UCRT\CORECRT_WCTYPE.H
C:\PROGRAM FILES (X86)\WINDOWS KITS\10\INCLUDE\10.0.19041.0\SHARED\KERNELSPECS.H
C:\PROGRAM FILES (X86)\WINDOWS KITS\10\INCLUDE\10.0.19041.0\SHARED\BASETSD.H
C:\PROGRAM FILES (X86)\WINDOWS KITS\10\INCLUDE\10.0.19041.0\SHARED\GUIDDEF.H
C:\PROGRAM FILES (X86)\WINDOWS KITS\10\INCLUDE\10.0.19041.0\UCRT\STRING.H
C:\PROGRAM FILES (X86)\WINDOWS KITS\10\INCLUDE\10.0.19041.0\UCRT\CORECRT_MEMORY.H
C:\PROGRAM FILES (X86)\WINDOWS KITS\10\INCLUDE\10.0.19041.0\UCRT\CORECRT_MEMCPY_S.H
C:\PROGRAM FILES (X86)\WINDOWS KITS\10\INCLUDE\10.0.19041.0\UCRT\ERRNO.H
C:\PROGRAM FILES (X86)\MICROSOFT VISUAL STUDIO\2019\PROFESSIONAL\VC\TOOLS\MSVC\14.29.30133\INCLUDE\VCRUNTIME_STRING.H
C:\PROGRAM FILES (X86)\WINDOWS KITS\10\INCLUDE\10.0.19041.0\UCRT\CORECRT_WSTRING.H
C:\PROGRAM FILES (X86)\MICROSOFT VISUAL STUDIO\2019\PROFESSIONAL\VC\TOOLS\MSVC\14.29.30133\INCLUDE\INTRIN.H
C:\PROGRAM FILES (X86)\MICROSOFT VISUAL STUDIO\2019\PROFESSIONAL\VC\TOOLS\MSVC\14.29.30133\INCLUDE\INTRIN0.INL.H
C:\PROGRAM FILES (X86)\MICROSOFT VISUAL STUDIO\2019\PROFESSIONAL\VC\TOOLS\MSVC\14.29.30133\INCLUDE\SETJMP.H
C:\PROGRAM FILES (X86)\MICROSOFT VISUAL STUDIO\2019\PROFESSIONAL\VC\TOOLS\MSVC\14.29.30133\INCLUDE\STDINT.H
C:\PROGRAM FILES (X86)\MICROSOFT VISUAL STUDIO\2019\PROFESSIONAL\VC\TOOLS\MSVC\14.29.30133\INCLUDE\ARM64INTR.H
C:\PROGRAM FILES (X86)\MICROSOFT VISUAL STUDIO\2019\PROFESSIONAL\VC\TOOLS\MSVC\14.29.30133\INCLUDE\ARM64_NEON.H
C:\PROGRAM FILES (X86)\WINDOWS KITS\10\INCLUDE\10.0.19041.0\SHARED\PSHPACK4.H
C:\PROGRAM FILES (X86)\WINDOWS KITS\10\INCLUDE\10.0.19041.0\SHARED\POPPACK.H
C:\PROGRAM FILES (X86)\WINDOWS KITS\10\INCLUDE\10.0.19041.0\SHARED\PSHPACK2.H
C:\PROGRAM FILES (X86)\WINDOWS KITS\10\INCLUDE\10.0.19041.0\SHARED\PSHPACK8.H
C:\PROGRAM FILES (X86)\WINDOWS KITS\10\INCLUDE\10.0.19041.0\SHARED\PSHPACK1.H
C:\PROGRAM FILES (X86)\WINDOWS KITS\10\INCLUDE\10.0.19041.0\SHARED\KTMTYPES.H
C:\PROGRAM FILES (X86)\WINDOWS KITS\10\INCLUDE\10.0.19041.0\UM\WINBASE.H
C:\PROGRAM FILES (X86)\WINDOWS KITS\10\INCLUDE\10.0.19041.0\UM\MINWINBASE.H
C:\PROGRAM FILES (X86)\WINDOWS KITS\10\INCLUDE\10.0.19041.0\UM\APIQUERY2.H
C:\PROGRAM FILES (X86)\WINDOWS KITS\10\INCLUDE\10.0.19041.0\UM\PROCESSENV.H
C:\PROGRAM FILES (X86)\WINDOWS KITS\10\INCLUDE\10.0.19041.0\UM\FILEAPIFROMAPP.H
C:\PROGRAM FILES (X86)\WINDOWS KITS\10\INCLUDE\10.0.19041.0\UM\FILEAPI.H
C:\PROGRAM FILES (X86)\WINDOWS KITS\10\INCLUDE\10.0.19041.0\UM\DEBUGAPI.H
C:\PROGRAM FILES (X86)\WINDOWS KITS\10\INCLUDE\10.0.19041.0\UM\UTILAPISET.H
C:\PROGRAM FILES (X86)\WINDOWS KITS\10\INCLUDE\10.0.19041.0\UM\HANDLEAPI.H
C:\PROGRAM FILES (X86)\WINDOWS KITS\10\INCLUDE\10.0.19041.0\UM\ERRHANDLINGAPI.H
C:\PROGRAM FILES (X86)\WINDOWS KITS\10\INCLUDE\10.0.19041.0\UM\FIBERSAPI.H
C:\PROGRAM FILES (X86)\WINDOWS KITS\10\INCLUDE\10.0.19041.0\UM\NAMEDPIPEAPI.H
C:\PROGRAM FILES (X86)\WINDOWS KITS\10\INCLUDE\10.0.19041.0\UM\PROFILEAPI.H
C:\PROGRAM FILES (X86)\WINDOWS KITS\10\INCLUDE\10.0.19041.0\UM\HEAPAPI.H
C:\PROGRAM FILES (X86)\WINDOWS KITS\10\INCLUDE\10.0.19041.0\UM\IOAPISET.H
C:\PROGRAM FILES (X86)\WINDOWS KITS\10\INCLUDE\10.0.19041.0\UM\SYNCHAPI.H
C:\PROGRAM FILES (X86)\WINDOWS KITS\10\INCLUDE\10.0.19041.0\UM\INTERLOCKEDAPI.H
C:\PROGRAM FILES (X86)\WINDOWS KITS\10\INCLUDE\10.0.19041.0\UM\PROCESSTHREADSAPI.H
C:\PROGRAM FILES (X86)\WINDOWS KITS\10\INCLUDE\10.0.19041.0\UM\SYSINFOAPI.H
C:\PROGRAM FILES (X86)\WINDOWS KITS\10\INCLUDE\10.0.19041.0\UM\MEMORYAPI.H
C:\PROGRAM FILES (X86)\WINDOWS KITS\10\INCLUDE\10.0.19041.0\UM\ENCLAVEAPI.H
C:\PROGRAM FILES (X86)\WINDOWS KITS\10\INCLUDE\10.0.19041.0\UM\THREADPOOLLEGACYAPISET.H
C:\PROGRAM FILES (X86)\WINDOWS KITS\10\INCLUDE\10.0.19041.0\UM\THREADPOOLAPISET.H
C:\PROGRAM FILES (X86)\WINDOWS KITS\10\INCLUDE\10.0.19041.0\UM\JOBAPI.H
C:\PROGRAM FILES (X86)\WINDOWS KITS\10\INCLUDE\10.0.19041.0\UM\JOBAPI2.H
C:\PROGRAM FILES (X86)\WINDOWS KITS\10\INCLUDE\10.0.19041.0\UM\WOW64APISET.H
C:\PROGRAM FILES (X86)\WINDOWS KITS\10\INCLUDE\10.0.19041.0\UM\LIBLOADERAPI.H
C:\PROGRAM FILES (X86)\WINDOWS KITS\10\INCLUDE\10.0.19041.0\UM\SECURITYBASEAPI.H
C:\PROGRAM FILES (X86)\WINDOWS KITS\10\INCLUDE\10.0.19041.0\UM\NAMESPACEAPI.H
C:\PROGRAM FILES (X86)\WINDOWS KITS\10\INCLUDE\10.0.19041.0\UM\SYSTEMTOPOLOGYAPI.H
C:\PROGRAM FILES (X86)\WINDOWS KITS\10\INCLUDE\10.0.19041.0\UM\PROCESSTOPOLOGYAPI.H
C:\PROGRAM FILES (X86)\WINDOWS KITS\10\INCLUDE\10.0.19041.0\UM\SECURITYAPPCONTAINER.H
C:\PROGRAM FILES (X86)\WINDOWS KITS\10\INCLUDE\10.0.19041.0\UM\REALTIMEAPISET.H
C:\PROGRAM FILES (X86)\WINDOWS KITS\10\INCLUDE\10.0.19041.0\SHARED\WINERROR.H
C:\PROGRAM FILES (X86)\WINDOWS KITS\10\INCLUDE\10.0.19041.0\UM\TIMEZONEAPI.H
C:\PROGRAM FILES (X86)\WINDOWS KITS\10\INCLUDE\10.0.19041.0\UM\WINGDI.H
C:\PROGRAM FILES (X86)\WINDOWS KITS\10\INCLUDE\10.0.19041.0\UM\WINUSER.H
C:\PROGRAM FILES (X86)\WINDOWS KITS\10\INCLUDE\10.0.19041.0\SHARED\TVOUT.H
C:\PROGRAM FILES (X86)\WINDOWS KITS\10\INCLUDE\10.0.19041.0\UM\WINNLS.H
C:\PROGRAM FILES (X86)\WINDOWS KITS\10\INCLUDE\10.0.19041.0\UM\DATETIMEAPI.H
C:\PROGRAM FILES (X86)\WINDOWS KITS\10\INCLUDE\10.0.19041.0\UM\STRINGAPISET.H
C:\PROGRAM FILES (X86)\WINDOWS KITS\10\INCLUDE\10.0.19041.0\UM\WINCON.H
C:\PROGRAM FILES (X86)\WINDOWS KITS\10\INCLUDE\10.0.19041.0\UM\WINCONTYPES.H
C:\PROGRAM FILES (X86)\WINDOWS KITS\10\INCLUDE\10.0.19041.0\UM\CONSOLEAPI.H
C:\PROGRAM FILES (X86)\WINDOWS KITS\10\INCLUDE\10.0.19041.0\UM\CONSOLEAPI2.H
C:\PROGRAM FILES (X86)\WINDOWS KITS\10\INCLUDE\10.0.19041.0\UM\CONSOLEAPI3.H
C:\PROGRAM FILES (X86)\WINDOWS KITS\10\INCLUDE\10.0.19041.0\UM\WINVER.H
C:\PROGRAM FILES (X86)\WINDOWS KITS\10\INCLUDE\10.0.19041.0\UM\VERRSRC.H
C:\PROGRAM FILES (X86)\WINDOWS KITS\10\INCLUDE\10.0.19041.0\UM\WINREG.H
C:\PROGRAM FILES (X86)\WINDOWS KITS\10\INCLUDE\10.0.19041.0\UM\WINNETWK.H
C:\PROGRAM FILES (X86)\WINDOWS KITS\10\INCLUDE\10.0.19041.0\SHARED\CDERR.H
C:\PROGRAM FILES (X86)\WINDOWS KITS\10\INCLUDE\10.0.19041.0\UM\DDE.H
C:\PROGRAM FILES (X86)\WINDOWS KITS\10\INCLUDE\10.0.19041.0\UM\DDEML.H
C:\PROGRAM FILES (X86)\WINDOWS KITS\10\INCLUDE\10.0.19041.0\UM\DLGS.H
C:\PROGRAM FILES (X86)\WINDOWS KITS\10\INCLUDE\10.0.19041.0\UM\LZEXPAND.H
C:\PROGRAM FILES (X86)\WINDOWS KITS\10\INCLUDE\10.0.19041.0\UM\MMSYSTEM.H
C:\PROGRAM FILES (X86)\WINDOWS KITS\10\INCLUDE\10.0.19041.0\UM\MMSYSCOM.H
C:\PROGRAM FILES (X86)\WINDOWS KITS\10\INCLUDE\10.0.19041.0\UM\NB30.H
C:\PROGRAM FILES (X86)\WINDOWS KITS\10\INCLUDE\10.0.19041.0\SHARED\RPCDCE.H
C:\PROGRAM FILES (X86)\WINDOWS KITS\10\INCLUDE\10.0.19041.0\SHARED\RPCDCEP.H
C:\PROGRAM FILES (X86)\WINDOWS KITS\10\INCLUDE\10.0.19041.0\UM\RPCNSI.H
C:\PROGRAM FILES (X86)\WINDOWS KITS\10\INCLUDE\10.0.19041.0\SHARED\RPCNTERR.H
C:\PROGRAM FILES (X86)\WINDOWS KITS\10\INCLUDE\10.0.19041.0\SHARED\RPCASYNC.H
C:\PROGRAM FILES (X86)\WINDOWS KITS\10\INCLUDE\10.0.19041.0\UM\SHELLAPI.H
C:\PROGRAM FILES (X86)\WINDOWS KITS\10\INCLUDE\10.0.19041.0\UM\WINPERF.H
C:\PROGRAM FILES (X86)\WINDOWS KITS\10\INCLUDE\10.0.19041.0\UM\WINSOCK.H
C:\PROGRAM FILES (X86)\WINDOWS KITS\10\INCLUDE\10.0.19041.0\UM\WINCRYPT.H
C:\PROGRAM FILES (X86)\WINDOWS KITS\10\INCLUDE\10.0.19041.0\UM\NCRYPT.H
C:\PROGRAM FILES (X86)\WINDOWS KITS\10\INCLUDE\10.0.19041.0\SHARED\BCRYPT.H
C:\PROGRAM FILES (X86)\WINDOWS KITS\10\INCLUDE\10.0.19041.0\UM\WINEFS.H
C:\PROGRAM FILES (X86)\WINDOWS KITS\10\INCLUDE\10.0.19041.0\UM\WINSCARD.H
C:\PROGRAM FILES (X86)\WINDOWS KITS\10\INCLUDE\10.0.19041.0\SHARED\WTYPES.H
C:\PROGRAM FILES (X86)\WINDOWS KITS\10\INCLUDE\10.0.19041.0\SHARED\RPCNDR.H
C:\PROGRAM FILES (X86)\WINDOWS KITS\10\INCLUDE\10.0.19041.0\UM\RPCNSIP.H
C:\PROGRAM FILES (X86)\WINDOWS KITS\10\INCLUDE\10.0.19041.0\SHARED\RPCSAL.H
C:\PROGRAM FILES (X86)\WINDOWS KITS\10\INCLUDE\10.0.19041.0\UM\WINIOCTL.H
C:\PROGRAM FILES (X86)\WINDOWS KITS\10\INCLUDE\10.0.19041.0\SHARED\WINSMCRD.H
C:\PROGRAM FILES (X86)\WINDOWS KITS\10\INCLUDE\10.0.19041.0\UM\WINSPOOL.H
C:\PROGRAM FILES (X86)\WINDOWS KITS\10\INCLUDE\10.0.19041.0\UM\PRSHT.H
C:\PROGRAM FILES (X86)\WINDOWS KITS\10\INCLUDE\10.0.19041.0\UM\OLE2.H
C:\PROGRAM FILES (X86)\WINDOWS KITS\10\INCLUDE\10.0.19041.0\UM\OBJBASE.H
C:\PROGRAM FILES (X86)\WINDOWS KITS\10\INCLUDE\10.0.19041.0\UM\COMBASEAPI.H
C:\PROGRAM FILES (X86)\WINDOWS KITS\10\INCLUDE\10.0.19041.0\UCRT\STDLIB.H
C:\PROGRAM FILES (X86)\WINDOWS KITS\10\INCLUDE\10.0.19041.0\UCRT\CORECRT_MALLOC.H
C:\PROGRAM FILES (X86)\WINDOWS KITS\10\INCLUDE\10.0.19041.0\UCRT\CORECRT_SEARCH.H
C:\PROGRAM FILES (X86)\WINDOWS KITS\10\INCLUDE\10.0.19041.0\UCRT\STDDEF.H
C:\PROGRAM FILES (X86)\WINDOWS KITS\10\INCLUDE\10.0.19041.0\UCRT\CORECRT_WSTDLIB.H
C:\PROGRAM FILES (X86)\MICROSOFT VISUAL STUDIO\2019\PROFESSIONAL\VC\TOOLS\MSVC\14.29.30133\INCLUDE\LIMITS.H
C:\PROGRAM FILES (X86)\WINDOWS KITS\10\INCLUDE\10.0.19041.0\UM\UNKNWNBASE.H
C:\PROGRAM FILES (X86)\WINDOWS KITS\10\INCLUDE\10.0.19041.0\UM\OBJIDLBASE.H
C:\PROGRAM FILES (X86)\WINDOWS KITS\10\INCLUDE\10.0.19041.0\UM\CGUID.H
C:\PROGRAM FILES (X86)\WINDOWS KITS\10\INCLUDE\10.0.19041.0\UM\COML2API.H
C:\PROGRAM FILES (X86)\WINDOWS KITS\10\INCLUDE\10.0.19041.0\UM\OBJIDL.H
C:\PROGRAM FILES (X86)\WINDOWS KITS\10\INCLUDE\10.0.19041.0\UM\UNKNWN.H
C:\PROGRAM FILES (X86)\WINDOWS KITS\10\INCLUDE\10.0.19041.0\UM\PROPIDLBASE.H
C:\PROGRAM FILES (X86)\WINDOWS KITS\10\INCLUDE\10.0.19041.0\UM\OAIDL.H
C:\PROGRAM FILES (X86)\WINDOWS KITS\10\INCLUDE\10.0.19041.0\UM\URLMON.H
C:\PROGRAM FILES (X86)\WINDOWS KITS\10\INCLUDE\10.0.19041.0\UM\OLEIDL.H
C:\PROGRAM FILES (X86)\WINDOWS KITS\10\INCLUDE\10.0.19041.0\UM\SERVPROV.H
C:\PROGRAM FILES (X86)\WINDOWS KITS\10\INCLUDE\10.0.19041.0\UM\MSXML.H
C:\PROGRAM FILES (X86)\WINDOWS KITS\10\INCLUDE\10.0.19041.0\UM\PROPIDL.H
C:\PROGRAM FILES (X86)\WINDOWS KITS\10\INCLUDE\10.0.19041.0\UM\OLEAUTO.H
C:\PROGRAM FILES (X86)\WINDOWS KITS\10\INCLUDE\10.0.19041.0\UM\COMMDLG.H
C:\PROGRAM FILES (X86)\WINDOWS KITS\10\INCLUDE\10.0.19041.0\SHARED\STRALIGN.H
C:\PROGRAM FILES (X86)\WINDOWS KITS\10\INCLUDE\10.0.19041.0\UM\WINSVC.H
C:\PROGRAM FILES (X86)\WINDOWS KITS\10\INCLUDE\10.0.19041.0\UM\MCX.H
C:\PROGRAM FILES (X86)\WINDOWS KITS\10\INCLUDE\10.0.19041.0\UM\IMM.H
C:\PROGRAM FILES (X86)\WINDOWS KITS\10\INCLUDE\10.0.19041.0\UM\IME_CMODES.H
C:\PROGRAM FILES (X86)\WINDOWS KITS\10\INCLUDE\10.0.19041.0\WINRT\INSPECTABLE.H
C:\PROGRAM FILES (X86)\WINDOWS KITS\10\INCLUDE\10.0.19041.0\WINRT\HSTRING.H
C:\PROGRAM FILES (X86)\WINDOWS KITS\10\INCLUDE\10.0.19041.0\WINRT\ACTIVATION.H
^C:\USERS\NERS535\DESKTOP\DNNG-HOLOLENS-VISUALIZATION - VN2\BUILDS_12\DNNG-HOLOLENS-VISUALIZATION-V2\UNITYGENERATED.CPP
C:\USERS\NERS535\DESKTOP\DNNG-HOLOLENS-VISUALIZATION - VN2\BUILDS_12\BUILD\OBJ\DNNG-HOLOLENS-VISUALIZATION-V2\ARM64\RELEASE\DNNG-HOLOLENS-VISUALIZATION-V2.PCH
C:\WINDOWS\MICROSOFT.NET\FRAMEWORK\V2.0.50727\MSCORWKS.DLL
C:\WINDOWS\MICROSOFT.NET\FRAMEWORK\V4.0.30319\CLR.DLL
C:\PROGRAM FILES (X86)\MICROSOFT VISUAL STUDIO\2019\PROFESSIONAL\VC\TOOLS\MSVC\14.29.30133\BIN\HOSTX86\ARM64\CL.EXE.CONFIG
C:\PROGRAM FILES (X86)\MICROSOFT VISUAL STUDIO\2019\PROFESSIONAL\VC\TOOLS\MSVC\14.29.30133\LIB\X86\STORE\REFERENCES\PLATFORM.WINMD
C:\PROGRAM FILES (X86)\WINDOWS KITS\10\REFERENCES\10.0.19041.0\WINDOWS.FOUNDATION.FOUNDATIONCONTRACT\4.0.0.0\WINDOWS.FOUNDATION.FOUNDATIONCONTRACT.WINMD
C:\PROGRAM FILES (X86)\WINDOWS KITS\10\REFERENCES\10.0.19041.0\WINDOWS.FOUNDATION.UNIVERSALAPICONTRACT\10.0.0.0\WINDOWS.FOUNDATION.UNIVERSALAPICONTRACT.WINMD
C:\PROGRAM FILES (X86)\WINDOWS KITS\10\REFERENCES\10.0.19041.0\WINDOWS.APPLICATIONMODEL.ACTIVATION.WEBUISEARCHACTIVATEDEVENTSCONTRACT\1.0.0.0\WINDOWS.APPLICATIONMODEL.ACTIVATION.WEBUISEARCHACTIVATEDEVENTSCONTRACT.WINMD
C:\PROGRAM FILES (X86)\WINDOWS KITS\10\REFERENCES\10.0.19041.0\WINDOWS.APPLICATIONMODEL.WALLET.WALLETCONTRACT\1.0.0.0\WINDOWS.APPLICATIONMODEL.WALLET.WALLETCONTRACT.WINMD
C:\PROGRAM FILES (X86)\WINDOWS KITS\10\REFERENCES\10.0.19041.0\WINDOWS.EMBEDDED.DEVICELOCKDOWN.DEVICELOCKDOWNCONTRACT\1.0.0.0\WINDOWS.EMBEDDED.DEVICELOCKDOWN.DEVICELOCKDOWNCONTRACT.WINMD
C:\PROGRAM FILES (X86)\WINDOWS KITS\10\REFERENCES\10.0.19041.0\WINDOWS.GAMING.PREVIEW.GAMESENUMERATIONCONTRACT\2.0.0.0\WINDOWS.GAMING.PREVIEW.GAMESENUMERATIONCONTRACT.WINMD
C:\PROGRAM FILES (X86)\WINDOWS KITS\10\REFERENCES\10.0.19041.0\WINDOWS.NETWORKING.NETWORKOPERATORS.NETWORKOPERATORSFDNCONTRACT\1.0.0.0\WINDOWS.NETWORKING.NETWORKOPERATORS.NETWORKOPERATORSFDNCONTRACT.WINMD
C:\PROGRAM FILES (X86)\WINDOWS KITS\10\REFERENCES\10.0.19041.0\WINDOWS.PHONE.PHONECONTRACT\1.0.0.0\WINDOWS.PHONE.PHONECONTRACT.WINMD
C:\PROGRAM FILES (X86)\WINDOWS KITS\10\REFERENCES\10.0.19041.0\WINDOWS.PHONE.STARTSCREEN.DUALSIMTILECONTRACT\1.0.0.0\WINDOWS.PHONE.STARTSCREEN.DUALSIMTILECONTRACT.WINMD
C:\PROGRAM FILES (X86)\WINDOWS KITS\10\REFERENCES\10.0.19041.0\WINDOWS.SECURITY.ENTERPRISEDATA.ENTERPRISEDATACONTRACT\5.0.0.0\WINDOWS.SECURITY.ENTERPRISEDATA.ENTERPRISEDATACONTRACT.WINMD
C:\PROGRAM FILES (X86)\WINDOWS KITS\10\REFERENCES\10.0.19041.0\WINDOWS.SYSTEM.PROFILE.PROFILERETAILINFOCONTRACT\1.0.0.0\WINDOWS.SYSTEM.PROFILE.PROFILERETAILINFOCONTRACT.WINMD
C:\PROGRAM FILES (X86)\WINDOWS KITS\10\REFERENCES\10.0.19041.0\WINDOWS.SYSTEM.USERPROFILE.USERPROFILECONTRACT\2.0.0.0\WINDOWS.SYSTEM.USERPROFILE.USERPROFILECONTRACT.WINMD
C:\PROGRAM FILES (X86)\WINDOWS KITS\10\REFERENCES\10.0.19041.0\WINDOWS.UI.WEBUI.CORE.WEBUICOMMANDBARCONTRACT\1.0.0.0\WINDOWS.UI.WEBUI.CORE.WEBUICOMMANDBARCONTRACT.WINMD
C:\PROGRAM FILES\UNITY\HUB\EDITOR\2020.3.31F1\EDITOR\DATA\PLAYBACKENGINES\METROSUPPORT\PLAYERS\UAP\IL2CPP\ARM64\RELEASE\UNITYPLAYER.WINMD
C:\PROGRAM FILES (X86)\WINDOWS KITS\10\REFERENCES\10.0.19041.0\WINDOWS.AI.MACHINELEARNING.MACHINELEARNINGCONTRACT\3.0.0.0\WINDOWS.AI.MACHINELEARNING.MACHINELEARNINGCONTRACT.WINMD
C:\PROGRAM FILES (X86)\WINDOWS KITS\10\REFERENCES\10.0.19041.0\WINDOWS.AI.MACHINELEARNING.PREVIEW.MACHINELEARNINGPREVIEWCONTRACT\2.0.0.0\WINDOWS.AI.MACHINELEARNING.PREVIEW.MACHINELEARNINGPREVIEWCONTRACT.WINMD
C:\PROGRAM FILES (X86)\WINDOWS KITS\10\REFERENCES\10.0.19041.0\WINDOWS.APPLICATIONMODEL.CALLS.BACKGROUND.CALLSBACKGROUNDCONTRACT\2.0.0.0\WINDOWS.APPLICATIONMODEL.CALLS.BACKGROUND.CALLSBACKGROUNDCONTRACT.WINMD
C:\PROGRAM FILES (X86)\WINDOWS KITS\10\REFERENCES\10.0.19041.0\WINDOWS.APPLICATIONMODEL.CALLS.CALLSPHONECONTRACT\5.0.0.0\WINDOWS.APPLICATIONMODEL.CALLS.CALLSPHONECONTRACT.WINMD
C:\PROGRAM FILES (X86)\WINDOWS KITS\10\REFERENCES\10.0.19041.0\WINDOWS.APPLICATIONMODEL.CALLS.CALLSVOIPCONTRACT\4.0.0.0\WINDOWS.APPLICATIONMODEL.CALLS.CALLSVOIPCONTRACT.WINMD
C:\PROGRAM FILES (X86)\WINDOWS KITS\10\REFERENCES\10.0.19041.0\WINDOWS.APPLICATIONMODEL.COMMUNICATIONBLOCKING.COMMUNICATIONBLOCKINGCONTRACT\2.0.0.0\WINDOWS.APPLICATIONMODEL.COMMUNICATIONBLOCKING.COMMUNICATIONBLOCKINGCONTRACT.WINMD
C:\PROGRAM FILES (X86)\WINDOWS KITS\10\REFERENCES\10.0.19041.0\WINDOWS.APPLICATIONMODEL.SOCIALINFO.SOCIALINFOCONTRACT\2.0.0.0\WINDOWS.APPLICATIONMODEL.SOCIALINFO.SOCIALINFOCONTRACT.WINMD
C:\PROGRAM FILES (X86)\WINDOWS KITS\10\REFERENCES\10.0.19041.0\WINDOWS.APPLICATIONMODEL.STARTUPTASKCONTRACT\3.0.0.0\WINDOWS.APPLICATIONMODEL.STARTUPTASKCONTRACT.WINMD
C:\PROGRAM FILES (X86)\WINDOWS KITS\10\REFERENCES\10.0.19041.0\WINDOWS.DEVICES.CUSTOM.CUSTOMDEVICECONTRACT\1.0.0.0\WINDOWS.DEVICES.CUSTOM.CUSTOMDEVICECONTRACT.WINMD
C:\PROGRAM FILES (X86)\WINDOWS KITS\10\REFERENCES\10.0.19041.0\WINDOWS.DEVICES.DEVICESLOWLEVELCONTRACT\3.0.0.0\WINDOWS.DEVICES.DEVICESLOWLEVELCONTRACT.WINMD
C:\PROGRAM FILES (X86)\WINDOWS KITS\10\REFERENCES\10.0.19041.0\WINDOWS.DEVICES.PRINTERS.PRINTERSCONTRACT\1.0.0.0\WINDOWS.DEVICES.PRINTERS.PRINTERSCONTRACT.WINMD
C:\PROGRAM FILES (X86)\WINDOWS KITS\10\REFERENCES\10.0.19041.0\WINDOWS.DEVICES.SMARTCARDS.SMARTCARDBACKGROUNDTRIGGERCONTRACT\3.0.0.0\WINDOWS.DEVICES.SMARTCARDS.SMARTCARDBACKGROUNDTRIGGERCONTRACT.WINMD
C:\PROGRAM FILES (X86)\WINDOWS KITS\10\REFERENCES\10.0.19041.0\WINDOWS.DEVICES.SMARTCARDS.SMARTCARDEMULATORCONTRACT\6.0.0.0\WINDOWS.DEVICES.SMARTCARDS.SMARTCARDEMULATORCONTRACT.WINMD
C:\PROGRAM FILES (X86)\WINDOWS KITS\10\REFERENCES\10.0.19041.0\WINDOWS.GAMING.XBOXLIVE.STORAGEAPICONTRACT\1.0.0.0\WINDOWS.GAMING.XBOXLIVE.STORAGEAPICONTRACT.WINMD
C:\PROGRAM FILES (X86)\WINDOWS KITS\10\REFERENCES\10.0.19041.0\WINDOWS.GRAPHICS.PRINTING3D.PRINTING3DCONTRACT\4.0.0.0\WINDOWS.GRAPHICS.PRINTING3D.PRINTING3DCONTRACT.WINMD
C:\PROGRAM FILES (X86)\WINDOWS KITS\10\REFERENCES\10.0.19041.0\WINDOWS.NETWORKING.CONNECTIVITY.WWANCONTRACT\2.0.0.0\WINDOWS.NETWORKING.CONNECTIVITY.WWANCONTRACT.WINMD
C:\PROGRAM FILES (X86)\WINDOWS KITS\10\REFERENCES\10.0.19041.0\WINDOWS.NETWORKING.SOCKETS.CONTROLCHANNELTRIGGERCONTRACT\3.0.0.0\WINDOWS.NETWORKING.SOCKETS.CONTROLCHANNELTRIGGERCONTRACT.WINMD
C:\PROGRAM FILES (X86)\WINDOWS KITS\10\REFERENCES\10.0.19041.0\WINDOWS.SECURITY.ISOLATION.ISOLATEDWINDOWSENVIRONMENTCONTRACT\2.0.0.0\WINDOWS.SECURITY.ISOLATION.ISOLATEDWINDOWSENVIRONMENTCONTRACT.WINMD
C:\PROGRAM FILES (X86)\WINDOWS KITS\10\REFERENCES\10.0.19041.0\WINDOWS.SERVICES.MAPS.GUIDANCECONTRACT\3.0.0.0\WINDOWS.SERVICES.MAPS.GUIDANCECONTRACT.WINMD
C:\PROGRAM FILES (X86)\WINDOWS KITS\10\REFERENCES\10.0.19041.0\WINDOWS.SERVICES.MAPS.LOCALSEARCHCONTRACT\4.0.0.0\WINDOWS.SERVICES.MAPS.LOCALSEARCHCONTRACT.WINMD
C:\PROGRAM FILES (X86)\WINDOWS KITS\10\REFERENCES\10.0.19041.0\WINDOWS.SERVICES.STORE.STORECONTRACT\4.0.0.0\WINDOWS.SERVICES.STORE.STORECONTRACT.WINMD
C:\PROGRAM FILES (X86)\WINDOWS KITS\10\REFERENCES\10.0.19041.0\WINDOWS.SERVICES.TARGETEDCONTENT.TARGETEDCONTENTCONTRACT\1.0.0.0\WINDOWS.SERVICES.TARGETEDCONTENT.TARGETEDCONTENTCONTRACT.WINMD
C:\PROGRAM FILES (X86)\WINDOWS KITS\10\REFERENCES\10.0.19041.0\WINDOWS.STORAGE.PROVIDER.CLOUDFILESCONTRACT\4.0.0.0\WINDOWS.STORAGE.PROVIDER.CLOUDFILESCONTRACT.WINMD
C:\PROGRAM FILES (X86)\WINDOWS KITS\10\REFERENCES\10.0.19041.0\WINDOWS.SYSTEM.PROFILE.PROFILEHARDWARETOKENCONTRACT\1.0.0.0\WINDOWS.SYSTEM.PROFILE.PROFILEHARDWARETOKENCONTRACT.WINMD
C:\PROGRAM FILES (X86)\WINDOWS KITS\10\REFERENCES\10.0.19041.0\WINDOWS.SYSTEM.PROFILE.PROFILESHAREDMODECONTRACT\2.0.0.0\WINDOWS.SYSTEM.PROFILE.PROFILESHAREDMODECONTRACT.WINMD
C:\PROGRAM FILES (X86)\WINDOWS KITS\10\REFERENCES\10.0.19041.0\WINDOWS.SYSTEM.PROFILE.SYSTEMMANUFACTURERS.SYSTEMMANUFACTURERSCONTRACT\3.0.0.0\WINDOWS.SYSTEM.PROFILE.SYSTEMMANUFACTURERS.SYSTEMMANUFACTURERSCONTRACT.WINMD
C:\PROGRAM FILES (X86)\WINDOWS KITS\10\REFERENCES\10.0.19041.0\WINDOWS.SYSTEM.SYSTEMMANAGEMENTCONTRACT\7.0.0.0\WINDOWS.SYSTEM.SYSTEMMANAGEMENTCONTRACT.WINMD
C:\PROGRAM FILES (X86)\WINDOWS KITS\10\REFERENCES\10.0.19041.0\WINDOWS.UI.VIEWMANAGEMENT.VIEWMANAGEMENTVIEWSCALINGCONTRACT\1.0.0.0\WINDOWS.UI.VIEWMANAGEMENT.VIEWMANAGEMENTVIEWSCALINGCONTRACT.WINMD
C:\PROGRAM FILES (X86)\WINDOWS KITS\10\REFERENCES\10.0.19041.0\WINDOWS.UI.XAML.CORE.DIRECT.XAMLDIRECTCONTRACT\2.0.0.0\WINDOWS.UI.XAML.CORE.DIRECT.XAMLDIRECTCONTRACT.WINMD
C:\USERS\NERS535\DESKTOP\DNNG-HOLOLENS-VISUALIZATION - VN2\BUILDS_12\BUILD\OBJ\DNNG-HOLOLENS-VISUALIZATION-V2\ARM64\RELEASE\PCH.OBJ
C:\USERS\NERS535\DESKTOP\DNNG-HOLOLENS-VISUALIZATION - VN2\BUILDS_12\DNNG-HOLOLENS-VISUALIZATION-V2\UNITYGENERATED.H
^C:\USERS\NERS535\DESKTOP\DNNG-HOLOLENS-VISUALIZATION - VN2\BUILDS_12\DNNG-HOLOLENS-VISUALIZATION-V2\MAIN.CPP
C:\USERS\NERS535\DESKTOP\DNNG-HOLOLENS-VISUALIZATION - VN2\BUILDS_12\BUILD\OBJ\DNNG-HOLOLENS-VISUALIZATION-V2\ARM64\RELEASE\DNNG-HOLOLENS-VISUALIZATION-V2.PCH
C:\WINDOWS\MICROSOFT.NET\FRAMEWORK\V2.0.50727\MSCORWKS.DLL
C:\WINDOWS\MICROSOFT.NET\FRAMEWORK\V4.0.30319\CLR.DLL
C:\PROGRAM FILES (X86)\MICROSOFT VISUAL STUDIO\2019\PROFESSIONAL\VC\TOOLS\MSVC\14.29.30133\BIN\HOSTX86\ARM64\CL.EXE.CONFIG
C:\PROGRAM FILES (X86)\MICROSOFT VISUAL STUDIO\2019\PROFESSIONAL\VC\TOOLS\MSVC\14.29.30133\LIB\X86\STORE\REFERENCES\PLATFORM.WINMD
C:\PROGRAM FILES (X86)\WINDOWS KITS\10\REFERENCES\10.0.19041.0\WINDOWS.FOUNDATION.FOUNDATIONCONTRACT\4.0.0.0\WINDOWS.FOUNDATION.FOUNDATIONCONTRACT.WINMD
C:\PROGRAM FILES (X86)\WINDOWS KITS\10\REFERENCES\10.0.19041.0\WINDOWS.FOUNDATION.UNIVERSALAPICONTRACT\10.0.0.0\WINDOWS.FOUNDATION.UNIVERSALAPICONTRACT.WINMD
C:\PROGRAM FILES (X86)\WINDOWS KITS\10\REFERENCES\10.0.19041.0\WINDOWS.APPLICATIONMODEL.ACTIVATION.WEBUISEARCHACTIVATEDEVENTSCONTRACT\1.0.0.0\WINDOWS.APPLICATIONMODEL.ACTIVATION.WEBUISEARCHACTIVATEDEVENTSCONTRACT.WINMD
C:\PROGRAM FILES (X86)\WINDOWS KITS\10\REFERENCES\10.0.19041.0\WINDOWS.APPLICATIONMODEL.WALLET.WALLETCONTRACT\1.0.0.0\WINDOWS.APPLICATIONMODEL.WALLET.WALLETCONTRACT.WINMD
C:\PROGRAM FILES (X86)\WINDOWS KITS\10\REFERENCES\10.0.19041.0\WINDOWS.EMBEDDED.DEVICELOCKDOWN.DEVICELOCKDOWNCONTRACT\1.0.0.0\WINDOWS.EMBEDDED.DEVICELOCKDOWN.DEVICELOCKDOWNCONTRACT.WINMD
C:\PROGRAM FILES (X86)\WINDOWS KITS\10\REFERENCES\10.0.19041.0\WINDOWS.GAMING.PREVIEW.GAMESENUMERATIONCONTRACT\2.0.0.0\WINDOWS.GAMING.PREVIEW.GAMESENUMERATIONCONTRACT.WINMD
C:\PROGRAM FILES (X86)\WINDOWS KITS\10\REFERENCES\10.0.19041.0\WINDOWS.NETWORKING.NETWORKOPERATORS.NETWORKOPERATORSFDNCONTRACT\1.0.0.0\WINDOWS.NETWORKING.NETWORKOPERATORS.NETWORKOPERATORSFDNCONTRACT.WINMD
C:\PROGRAM FILES (X86)\WINDOWS KITS\10\REFERENCES\10.0.19041.0\WINDOWS.PHONE.PHONECONTRACT\1.0.0.0\WINDOWS.PHONE.PHONECONTRACT.WINMD
C:\PROGRAM FILES (X86)\WINDOWS KITS\10\REFERENCES\10.0.19041.0\WINDOWS.PHONE.STARTSCREEN.DUALSIMTILECONTRACT\1.0.0.0\WINDOWS.PHONE.STARTSCREEN.DUALSIMTILECONTRACT.WINMD
C:\PROGRAM FILES (X86)\WINDOWS KITS\10\REFERENCES\10.0.19041.0\WINDOWS.SECURITY.ENTERPRISEDATA.ENTERPRISEDATACONTRACT\5.0.0.0\WINDOWS.SECURITY.ENTERPRISEDATA.ENTERPRISEDATACONTRACT.WINMD
C:\PROGRAM FILES (X86)\WINDOWS KITS\10\REFERENCES\10.0.19041.0\WINDOWS.SYSTEM.PROFILE.PROFILERETAILINFOCONTRACT\1.0.0.0\WINDOWS.SYSTEM.PROFILE.PROFILERETAILINFOCONTRACT.WINMD
C:\PROGRAM FILES (X86)\WINDOWS KITS\10\REFERENCES\10.0.19041.0\WINDOWS.SYSTEM.USERPROFILE.USERPROFILECONTRACT\2.0.0.0\WINDOWS.SYSTEM.USERPROFILE.USERPROFILECONTRACT.WINMD
C:\PROGRAM FILES (X86)\WINDOWS KITS\10\REFERENCES\10.0.19041.0\WINDOWS.UI.WEBUI.CORE.WEBUICOMMANDBARCONTRACT\1.0.0.0\WINDOWS.UI.WEBUI.CORE.WEBUICOMMANDBARCONTRACT.WINMD
C:\PROGRAM FILES\UNITY\HUB\EDITOR\2020.3.31F1\EDITOR\DATA\PLAYBACKENGINES\METROSUPPORT\PLAYERS\UAP\IL2CPP\ARM64\RELEASE\UNITYPLAYER.WINMD
C:\PROGRAM FILES (X86)\WINDOWS KITS\10\REFERENCES\10.0.19041.0\WINDOWS.AI.MACHINELEARNING.MACHINELEARNINGCONTRACT\3.0.0.0\WINDOWS.AI.MACHINELEARNING.MACHINELEARNINGCONTRACT.WINMD
C:\PROGRAM FILES (X86)\WINDOWS KITS\10\REFERENCES\10.0.19041.0\WINDOWS.AI.MACHINELEARNING.PREVIEW.MACHINELEARNINGPREVIEWCONTRACT\2.0.0.0\WINDOWS.AI.MACHINELEARNING.PREVIEW.MACHINELEARNINGPREVIEWCONTRACT.WINMD
C:\PROGRAM FILES (X86)\WINDOWS KITS\10\REFERENCES\10.0.19041.0\WINDOWS.APPLICATIONMODEL.CALLS.BACKGROUND.CALLSBACKGROUNDCONTRACT\2.0.0.0\WINDOWS.APPLICATIONMODEL.CALLS.BACKGROUND.CALLSBACKGROUNDCONTRACT.WINMD
C:\PROGRAM FILES (X86)\WINDOWS KITS\10\REFERENCES\10.0.19041.0\WINDOWS.APPLICATIONMODEL.CALLS.CALLSPHONECONTRACT\5.0.0.0\WINDOWS.APPLICATIONMODEL.CALLS.CALLSPHONECONTRACT.WINMD
C:\PROGRAM FILES (X86)\WINDOWS KITS\10\REFERENCES\10.0.19041.0\WINDOWS.APPLICATIONMODEL.CALLS.CALLSVOIPCONTRACT\4.0.0.0\WINDOWS.APPLICATIONMODEL.CALLS.CALLSVOIPCONTRACT.WINMD
C:\PROGRAM FILES (X86)\WINDOWS KITS\10\REFERENCES\10.0.19041.0\WINDOWS.APPLICATIONMODEL.COMMUNICATIONBLOCKING.COMMUNICATIONBLOCKINGCONTRACT\2.0.0.0\WINDOWS.APPLICATIONMODEL.COMMUNICATIONBLOCKING.COMMUNICATIONBLOCKINGCONTRACT.WINMD
C:\PROGRAM FILES (X86)\WINDOWS KITS\10\REFERENCES\10.0.19041.0\WINDOWS.APPLICATIONMODEL.SOCIALINFO.SOCIALINFOCONTRACT\2.0.0.0\WINDOWS.APPLICATIONMODEL.SOCIALINFO.SOCIALINFOCONTRACT.WINMD
C:\PROGRAM FILES (X86)\WINDOWS KITS\10\REFERENCES\10.0.19041.0\WINDOWS.APPLICATIONMODEL.STARTUPTASKCONTRACT\3.0.0.0\WINDOWS.APPLICATIONMODEL.STARTUPTASKCONTRACT.WINMD
C:\PROGRAM FILES (X86)\WINDOWS KITS\10\REFERENCES\10.0.19041.0\WINDOWS.DEVICES.CUSTOM.CUSTOMDEVICECONTRACT\1.0.0.0\WINDOWS.DEVICES.CUSTOM.CUSTOMDEVICECONTRACT.WINMD
C:\PROGRAM FILES (X86)\WINDOWS KITS\10\REFERENCES\10.0.19041.0\WINDOWS.DEVICES.DEVICESLOWLEVELCONTRACT\3.0.0.0\WINDOWS.DEVICES.DEVICESLOWLEVELCONTRACT.WINMD
C:\PROGRAM FILES (X86)\WINDOWS KITS\10\REFERENCES\10.0.19041.0\WINDOWS.DEVICES.PRINTERS.PRINTERSCONTRACT\1.0.0.0\WINDOWS.DEVICES.PRINTERS.PRINTERSCONTRACT.WINMD
C:\PROGRAM FILES (X86)\WINDOWS KITS\10\REFERENCES\10.0.19041.0\WINDOWS.DEVICES.SMARTCARDS.SMARTCARDBACKGROUNDTRIGGERCONTRACT\3.0.0.0\WINDOWS.DEVICES.SMARTCARDS.SMARTCARDBACKGROUNDTRIGGERCONTRACT.WINMD
C:\PROGRAM FILES (X86)\WINDOWS KITS\10\REFERENCES\10.0.19041.0\WINDOWS.DEVICES.SMARTCARDS.SMARTCARDEMULATORCONTRACT\6.0.0.0\WINDOWS.DEVICES.SMARTCARDS.SMARTCARDEMULATORCONTRACT.WINMD
C:\PROGRAM FILES (X86)\WINDOWS KITS\10\REFERENCES\10.0.19041.0\WINDOWS.GAMING.XBOXLIVE.STORAGEAPICONTRACT\1.0.0.0\WINDOWS.GAMING.XBOXLIVE.STORAGEAPICONTRACT.WINMD
C:\PROGRAM FILES (X86)\WINDOWS KITS\10\REFERENCES\10.0.19041.0\WINDOWS.GRAPHICS.PRINTING3D.PRINTING3DCONTRACT\4.0.0.0\WINDOWS.GRAPHICS.PRINTING3D.PRINTING3DCONTRACT.WINMD
C:\PROGRAM FILES (X86)\WINDOWS KITS\10\REFERENCES\10.0.19041.0\WINDOWS.NETWORKING.CONNECTIVITY.WWANCONTRACT\2.0.0.0\WINDOWS.NETWORKING.CONNECTIVITY.WWANCONTRACT.WINMD
C:\PROGRAM FILES (X86)\WINDOWS KITS\10\REFERENCES\10.0.19041.0\WINDOWS.NETWORKING.SOCKETS.CONTROLCHANNELTRIGGERCONTRACT\3.0.0.0\WINDOWS.NETWORKING.SOCKETS.CONTROLCHANNELTRIGGERCONTRACT.WINMD
C:\PROGRAM FILES (X86)\WINDOWS KITS\10\REFERENCES\10.0.19041.0\WINDOWS.SECURITY.ISOLATION.ISOLATEDWINDOWSENVIRONMENTCONTRACT\2.0.0.0\WINDOWS.SECURITY.ISOLATION.ISOLATEDWINDOWSENVIRONMENTCONTRACT.WINMD
C:\PROGRAM FILES (X86)\WINDOWS KITS\10\REFERENCES\10.0.19041.0\WINDOWS.SERVICES.MAPS.GUIDANCECONTRACT\3.0.0.0\WINDOWS.SERVICES.MAPS.GUIDANCECONTRACT.WINMD
C:\PROGRAM FILES (X86)\WINDOWS KITS\10\REFERENCES\10.0.19041.0\WINDOWS.SERVICES.MAPS.LOCALSEARCHCONTRACT\4.0.0.0\WINDOWS.SERVICES.MAPS.LOCALSEARCHCONTRACT.WINMD
C:\PROGRAM FILES (X86)\WINDOWS KITS\10\REFERENCES\10.0.19041.0\WINDOWS.SERVICES.STORE.STORECONTRACT\4.0.0.0\WINDOWS.SERVICES.STORE.STORECONTRACT.WINMD
C:\PROGRAM FILES (X86)\WINDOWS KITS\10\REFERENCES\10.0.19041.0\WINDOWS.SERVICES.TARGETEDCONTENT.TARGETEDCONTENTCONTRACT\1.0.0.0\WINDOWS.SERVICES.TARGETEDCONTENT.TARGETEDCONTENTCONTRACT.WINMD
C:\PROGRAM FILES (X86)\WINDOWS KITS\10\REFERENCES\10.0.19041.0\WINDOWS.STORAGE.PROVIDER.CLOUDFILESCONTRACT\4.0.0.0\WINDOWS.STORAGE.PROVIDER.CLOUDFILESCONTRACT.WINMD
C:\PROGRAM FILES (X86)\WINDOWS KITS\10\REFERENCES\10.0.19041.0\WINDOWS.SYSTEM.PROFILE.PROFILEHARDWARETOKENCONTRACT\1.0.0.0\WINDOWS.SYSTEM.PROFILE.PROFILEHARDWARETOKENCONTRACT.WINMD
C:\PROGRAM FILES (X86)\WINDOWS KITS\10\REFERENCES\10.0.19041.0\WINDOWS.SYSTEM.PROFILE.PROFILESHAREDMODECONTRACT\2.0.0.0\WINDOWS.SYSTEM.PROFILE.PROFILESHAREDMODECONTRACT.WINMD
C:\PROGRAM FILES (X86)\WINDOWS KITS\10\REFERENCES\10.0.19041.0\WINDOWS.SYSTEM.PROFILE.SYSTEMMANUFACTURERS.SYSTEMMANUFACTURERSCONTRACT\3.0.0.0\WINDOWS.SYSTEM.PROFILE.SYSTEMMANUFACTURERS.SYSTEMMANUFACTURERSCONTRACT.WINMD
C:\PROGRAM FILES (X86)\WINDOWS KITS\10\REFERENCES\10.0.19041.0\WINDOWS.SYSTEM.SYSTEMMANAGEMENTCONTRACT\7.0.0.0\WINDOWS.SYSTEM.SYSTEMMANAGEMENTCONTRACT.WINMD
C:\PROGRAM FILES (X86)\WINDOWS KITS\10\REFERENCES\10.0.19041.0\WINDOWS.UI.VIEWMANAGEMENT.VIEWMANAGEMENTVIEWSCALINGCONTRACT\1.0.0.0\WINDOWS.UI.VIEWMANAGEMENT.VIEWMANAGEMENTVIEWSCALINGCONTRACT.WINMD
C:\PROGRAM FILES (X86)\WINDOWS KITS\10\REFERENCES\10.0.19041.0\WINDOWS.UI.XAML.CORE.DIRECT.XAMLDIRECTCONTRACT\2.0.0.0\WINDOWS.UI.XAML.CORE.DIRECT.XAMLDIRECTCONTRACT.WINMD
C:\USERS\NERS535\DESKTOP\DNNG-HOLOLENS-VISUALIZATION - VN2\BUILDS_12\BUILD\OBJ\DNNG-HOLOLENS-VISUALIZATION-V2\ARM64\RELEASE\PCH.OBJ
C:\USERS\NERS535\DESKTOP\DNNG-HOLOLENS-VISUALIZATION - VN2\BUILDS_12\DNNG-HOLOLENS-VISUALIZATION-V2\APP.H
^C:\USERS\NERS535\DESKTOP\DNNG-HOLOLENS-VISUALIZATION - VN2\BUILDS_12\DNNG-HOLOLENS-VISUALIZATION-V2\APP.CPP
C:\USERS\NERS535\DESKTOP\DNNG-HOLOLENS-VISUALIZATION - VN2\BUILDS_12\BUILD\OBJ\DNNG-HOLOLENS-VISUALIZATION-V2\ARM64\RELEASE\DNNG-HOLOLENS-VISUALIZATION-V2.PCH
C:\PROGRAM FILES (X86)\MICROSOFT VISUAL STUDIO\2019\PROFESSIONAL\VC\TOOLS\MSVC\14.29.30133\BIN\HOSTX86\ARM64\MSPDBSRV.EXE
C:\WINDOWS\MICROSOFT.NET\FRAMEWORK\V2.0.50727\MSCORWKS.DLL
C:\WINDOWS\MICROSOFT.NET\FRAMEWORK\V4.0.30319\CLR.DLL
C:\PROGRAM FILES (X86)\MICROSOFT VISUAL STUDIO\2019\PROFESSIONAL\VC\TOOLS\MSVC\14.29.30133\BIN\HOSTX86\ARM64\CL.EXE.CONFIG
C:\PROGRAM FILES (X86)\MICROSOFT VISUAL STUDIO\2019\PROFESSIONAL\VC\TOOLS\MSVC\14.29.30133\LIB\X86\STORE\REFERENCES\PLATFORM.WINMD
C:\PROGRAM FILES (X86)\WINDOWS KITS\10\REFERENCES\10.0.19041.0\WINDOWS.FOUNDATION.FOUNDATIONCONTRACT\4.0.0.0\WINDOWS.FOUNDATION.FOUNDATIONCONTRACT.WINMD
C:\PROGRAM FILES (X86)\WINDOWS KITS\10\REFERENCES\10.0.19041.0\WINDOWS.FOUNDATION.UNIVERSALAPICONTRACT\10.0.0.0\WINDOWS.FOUNDATION.UNIVERSALAPICONTRACT.WINMD
C:\PROGRAM FILES (X86)\WINDOWS KITS\10\REFERENCES\10.0.19041.0\WINDOWS.APPLICATIONMODEL.ACTIVATION.WEBUISEARCHACTIVATEDEVENTSCONTRACT\1.0.0.0\WINDOWS.APPLICATIONMODEL.ACTIVATION.WEBUISEARCHACTIVATEDEVENTSCONTRACT.WINMD
C:\PROGRAM FILES (X86)\WINDOWS KITS\10\REFERENCES\10.0.19041.0\WINDOWS.APPLICATIONMODEL.WALLET.WALLETCONTRACT\1.0.0.0\WINDOWS.APPLICATIONMODEL.WALLET.WALLETCONTRACT.WINMD
C:\PROGRAM FILES (X86)\WINDOWS KITS\10\REFERENCES\10.0.19041.0\WINDOWS.EMBEDDED.DEVICELOCKDOWN.DEVICELOCKDOWNCONTRACT\1.0.0.0\WINDOWS.EMBEDDED.DEVICELOCKDOWN.DEVICELOCKDOWNCONTRACT.WINMD
C:\PROGRAM FILES (X86)\WINDOWS KITS\10\REFERENCES\10.0.19041.0\WINDOWS.GAMING.PREVIEW.GAMESENUMERATIONCONTRACT\2.0.0.0\WINDOWS.GAMING.PREVIEW.GAMESENUMERATIONCONTRACT.WINMD
C:\PROGRAM FILES (X86)\WINDOWS KITS\10\REFERENCES\10.0.19041.0\WINDOWS.NETWORKING.NETWORKOPERATORS.NETWORKOPERATORSFDNCONTRACT\1.0.0.0\WINDOWS.NETWORKING.NETWORKOPERATORS.NETWORKOPERATORSFDNCONTRACT.WINMD
C:\PROGRAM FILES (X86)\WINDOWS KITS\10\REFERENCES\10.0.19041.0\WINDOWS.PHONE.PHONECONTRACT\1.0.0.0\WINDOWS.PHONE.PHONECONTRACT.WINMD
C:\PROGRAM FILES (X86)\WINDOWS KITS\10\REFERENCES\10.0.19041.0\WINDOWS.PHONE.STARTSCREEN.DUALSIMTILECONTRACT\1.0.0.0\WINDOWS.PHONE.STARTSCREEN.DUALSIMTILECONTRACT.WINMD
C:\PROGRAM FILES (X86)\WINDOWS KITS\10\REFERENCES\10.0.19041.0\WINDOWS.SECURITY.ENTERPRISEDATA.ENTERPRISEDATACONTRACT\5.0.0.0\WINDOWS.SECURITY.ENTERPRISEDATA.ENTERPRISEDATACONTRACT.WINMD
C:\PROGRAM FILES (X86)\WINDOWS KITS\10\REFERENCES\10.0.19041.0\WINDOWS.SYSTEM.PROFILE.PROFILERETAILINFOCONTRACT\1.0.0.0\WINDOWS.SYSTEM.PROFILE.PROFILERETAILINFOCONTRACT.WINMD
C:\PROGRAM FILES (X86)\WINDOWS KITS\10\REFERENCES\10.0.19041.0\WINDOWS.SYSTEM.USERPROFILE.USERPROFILECONTRACT\2.0.0.0\WINDOWS.SYSTEM.USERPROFILE.USERPROFILECONTRACT.WINMD
C:\PROGRAM FILES (X86)\WINDOWS KITS\10\REFERENCES\10.0.19041.0\WINDOWS.UI.WEBUI.CORE.WEBUICOMMANDBARCONTRACT\1.0.0.0\WINDOWS.UI.WEBUI.CORE.WEBUICOMMANDBARCONTRACT.WINMD
C:\PROGRAM FILES\UNITY\HUB\EDITOR\2020.3.31F1\EDITOR\DATA\PLAYBACKENGINES\METROSUPPORT\PLAYERS\UAP\IL2CPP\ARM64\RELEASE\UNITYPLAYER.WINMD
C:\PROGRAM FILES (X86)\WINDOWS KITS\10\REFERENCES\10.0.19041.0\WINDOWS.AI.MACHINELEARNING.MACHINELEARNINGCONTRACT\3.0.0.0\WINDOWS.AI.MACHINELEARNING.MACHINELEARNINGCONTRACT.WINMD
C:\PROGRAM FILES (X86)\WINDOWS KITS\10\REFERENCES\10.0.19041.0\WINDOWS.AI.MACHINELEARNING.PREVIEW.MACHINELEARNINGPREVIEWCONTRACT\2.0.0.0\WINDOWS.AI.MACHINELEARNING.PREVIEW.MACHINELEARNINGPREVIEWCONTRACT.WINMD
C:\PROGRAM FILES (X86)\WINDOWS KITS\10\REFERENCES\10.0.19041.0\WINDOWS.APPLICATIONMODEL.CALLS.BACKGROUND.CALLSBACKGROUNDCONTRACT\2.0.0.0\WINDOWS.APPLICATIONMODEL.CALLS.BACKGROUND.CALLSBACKGROUNDCONTRACT.WINMD
C:\PROGRAM FILES (X86)\WINDOWS KITS\10\REFERENCES\10.0.19041.0\WINDOWS.APPLICATIONMODEL.CALLS.CALLSPHONECONTRACT\5.0.0.0\WINDOWS.APPLICATIONMODEL.CALLS.CALLSPHONECONTRACT.WINMD
C:\PROGRAM FILES (X86)\WINDOWS KITS\10\REFERENCES\10.0.19041.0\WINDOWS.APPLICATIONMODEL.CALLS.CALLSVOIPCONTRACT\4.0.0.0\WINDOWS.APPLICATIONMODEL.CALLS.CALLSVOIPCONTRACT.WINMD
C:\PROGRAM FILES (X86)\WINDOWS KITS\10\REFERENCES\10.0.19041.0\WINDOWS.APPLICATIONMODEL.COMMUNICATIONBLOCKING.COMMUNICATIONBLOCKINGCONTRACT\2.0.0.0\WINDOWS.APPLICATIONMODEL.COMMUNICATIONBLOCKING.COMMUNICATIONBLOCKINGCONTRACT.WINMD
C:\PROGRAM FILES (X86)\WINDOWS KITS\10\REFERENCES\10.0.19041.0\WINDOWS.APPLICATIONMODEL.SOCIALINFO.SOCIALINFOCONTRACT\2.0.0.0\WINDOWS.APPLICATIONMODEL.SOCIALINFO.SOCIALINFOCONTRACT.WINMD
C:\PROGRAM FILES (X86)\WINDOWS KITS\10\REFERENCES\10.0.19041.0\WINDOWS.APPLICATIONMODEL.STARTUPTASKCONTRACT\3.0.0.0\WINDOWS.APPLICATIONMODEL.STARTUPTASKCONTRACT.WINMD
C:\PROGRAM FILES (X86)\WINDOWS KITS\10\REFERENCES\10.0.19041.0\WINDOWS.DEVICES.CUSTOM.CUSTOMDEVICECONTRACT\1.0.0.0\WINDOWS.DEVICES.CUSTOM.CUSTOMDEVICECONTRACT.WINMD
C:\PROGRAM FILES (X86)\WINDOWS KITS\10\REFERENCES\10.0.19041.0\WINDOWS.DEVICES.DEVICESLOWLEVELCONTRACT\3.0.0.0\WINDOWS.DEVICES.DEVICESLOWLEVELCONTRACT.WINMD
C:\PROGRAM FILES (X86)\WINDOWS KITS\10\REFERENCES\10.0.19041.0\WINDOWS.DEVICES.PRINTERS.PRINTERSCONTRACT\1.0.0.0\WINDOWS.DEVICES.PRINTERS.PRINTERSCONTRACT.WINMD
C:\PROGRAM FILES (X86)\WINDOWS KITS\10\REFERENCES\10.0.19041.0\WINDOWS.DEVICES.SMARTCARDS.SMARTCARDBACKGROUNDTRIGGERCONTRACT\3.0.0.0\WINDOWS.DEVICES.SMARTCARDS.SMARTCARDBACKGROUNDTRIGGERCONTRACT.WINMD
C:\PROGRAM FILES (X86)\WINDOWS KITS\10\REFERENCES\10.0.19041.0\WINDOWS.DEVICES.SMARTCARDS.SMARTCARDEMULATORCONTRACT\6.0.0.0\WINDOWS.DEVICES.SMARTCARDS.SMARTCARDEMULATORCONTRACT.WINMD
C:\PROGRAM FILES (X86)\WINDOWS KITS\10\REFERENCES\10.0.19041.0\WINDOWS.GAMING.XBOXLIVE.STORAGEAPICONTRACT\1.0.0.0\WINDOWS.GAMING.XBOXLIVE.STORAGEAPICONTRACT.WINMD
C:\PROGRAM FILES (X86)\WINDOWS KITS\10\REFERENCES\10.0.19041.0\WINDOWS.GRAPHICS.PRINTING3D.PRINTING3DCONTRACT\4.0.0.0\WINDOWS.GRAPHICS.PRINTING3D.PRINTING3DCONTRACT.WINMD
C:\PROGRAM FILES (X86)\WINDOWS KITS\10\REFERENCES\10.0.19041.0\WINDOWS.NETWORKING.CONNECTIVITY.WWANCONTRACT\2.0.0.0\WINDOWS.NETWORKING.CONNECTIVITY.WWANCONTRACT.WINMD
C:\PROGRAM FILES (X86)\WINDOWS KITS\10\REFERENCES\10.0.19041.0\WINDOWS.NETWORKING.SOCKETS.CONTROLCHANNELTRIGGERCONTRACT\3.0.0.0\WINDOWS.NETWORKING.SOCKETS.CONTROLCHANNELTRIGGERCONTRACT.WINMD
C:\PROGRAM FILES (X86)\WINDOWS KITS\10\REFERENCES\10.0.19041.0\WINDOWS.SECURITY.ISOLATION.ISOLATEDWINDOWSENVIRONMENTCONTRACT\2.0.0.0\WINDOWS.SECURITY.ISOLATION.ISOLATEDWINDOWSENVIRONMENTCONTRACT.WINMD
C:\PROGRAM FILES (X86)\WINDOWS KITS\10\REFERENCES\10.0.19041.0\WINDOWS.SERVICES.MAPS.GUIDANCECONTRACT\3.0.0.0\WINDOWS.SERVICES.MAPS.GUIDANCECONTRACT.WINMD
C:\PROGRAM FILES (X86)\WINDOWS KITS\10\REFERENCES\10.0.19041.0\WINDOWS.SERVICES.MAPS.LOCALSEARCHCONTRACT\4.0.0.0\WINDOWS.SERVICES.MAPS.LOCALSEARCHCONTRACT.WINMD
C:\PROGRAM FILES (X86)\WINDOWS KITS\10\REFERENCES\10.0.19041.0\WINDOWS.SERVICES.STORE.STORECONTRACT\4.0.0.0\WINDOWS.SERVICES.STORE.STORECONTRACT.WINMD
C:\PROGRAM FILES (X86)\WINDOWS KITS\10\REFERENCES\10.0.19041.0\WINDOWS.SERVICES.TARGETEDCONTENT.TARGETEDCONTENTCONTRACT\1.0.0.0\WINDOWS.SERVICES.TARGETEDCONTENT.TARGETEDCONTENTCONTRACT.WINMD
C:\PROGRAM FILES (X86)\WINDOWS KITS\10\REFERENCES\10.0.19041.0\WINDOWS.STORAGE.PROVIDER.CLOUDFILESCONTRACT\4.0.0.0\WINDOWS.STORAGE.PROVIDER.CLOUDFILESCONTRACT.WINMD
C:\PROGRAM FILES (X86)\WINDOWS KITS\10\REFERENCES\10.0.19041.0\WINDOWS.SYSTEM.PROFILE.PROFILEHARDWARETOKENCONTRACT\1.0.0.0\WINDOWS.SYSTEM.PROFILE.PROFILEHARDWARETOKENCONTRACT.WINMD
C:\PROGRAM FILES (X86)\WINDOWS KITS\10\REFERENCES\10.0.19041.0\WINDOWS.SYSTEM.PROFILE.PROFILESHAREDMODECONTRACT\2.0.0.0\WINDOWS.SYSTEM.PROFILE.PROFILESHAREDMODECONTRACT.WINMD
C:\PROGRAM FILES (X86)\WINDOWS KITS\10\REFERENCES\10.0.19041.0\WINDOWS.SYSTEM.PROFILE.SYSTEMMANUFACTURERS.SYSTEMMANUFACTURERSCONTRACT\3.0.0.0\WINDOWS.SYSTEM.PROFILE.SYSTEMMANUFACTURERS.SYSTEMMANUFACTURERSCONTRACT.WINMD
C:\PROGRAM FILES (X86)\WINDOWS KITS\10\REFERENCES\10.0.19041.0\WINDOWS.SYSTEM.SYSTEMMANAGEMENTCONTRACT\7.0.0.0\WINDOWS.SYSTEM.SYSTEMMANAGEMENTCONTRACT.WINMD
C:\PROGRAM FILES (X86)\WINDOWS KITS\10\REFERENCES\10.0.19041.0\WINDOWS.UI.VIEWMANAGEMENT.VIEWMANAGEMENTVIEWSCALINGCONTRACT\1.0.0.0\WINDOWS.UI.VIEWMANAGEMENT.VIEWMANAGEMENTVIEWSCALINGCONTRACT.WINMD
C:\PROGRAM FILES (X86)\WINDOWS KITS\10\REFERENCES\10.0.19041.0\WINDOWS.UI.XAML.CORE.DIRECT.XAMLDIRECTCONTRACT\2.0.0.0\WINDOWS.UI.XAML.CORE.DIRECT.XAMLDIRECTCONTRACT.WINMD
C:\USERS\NERS535\DESKTOP\DNNG-HOLOLENS-VISUALIZATION - VN2\BUILDS_12\BUILD\OBJ\DNNG-HOLOLENS-VISUALIZATION-V2\ARM64\RELEASE\PCH.OBJ
C:\USERS\NERS535\DESKTOP\DNNG-HOLOLENS-VISUALIZATION - VN2\BUILDS_12\DNNG-HOLOLENS-VISUALIZATION-V2\APP.H
C:\USERS\NERS535\DESKTOP\DNNG-HOLOLENS-VISUALIZATION - VN2\BUILDS_12\DNNG-HOLOLENS-VISUALIZATION-V2\UNITYGENERATED.H
