^C:\Users\NERS535\Desktop\dnng-hololens-visualization - vn2\builds_13\dnng-hololens-visualization-v2\dnng-hololens-visualization-v2.vcxproj
C:\Program Files\Unity\Hub\Editor\2020.3.31f1\Editor\Data\PlaybackEngines\MetroSupport\Players\UAP\il2cpp\ARM64\Release\UnityPlayer.winmd
C:\Program Files\Unity\Hub\Editor\2020.3.31f1\Editor\Data\PlaybackEngines\MetroSupport\Players\UAP\il2cpp\ARM64\Release\UnityPlayer_UAP_ARM64_Release_il2cpp.pdb
C:\Program Files\Unity\Hub\Editor\2020.3.31f1\Editor\Data\PlaybackEngines\MetroSupport\Players\UAP\il2cpp\ARM64\Release\UnityPlayer.dll
